<?xml version="1.0" encoding="UTF-8" standalone="no"?>
<!-- Created with Inkscape (http://www.inkscape.org/) -->

<svg
   width="1024"
   height="1024"
   viewBox="0 0 270.93331 270.93331"
   version="1.1"
   id="svg5"
   inkscape:version="1.1.2 (0a00cf5339, 2022-02-04)"
   sodipodi:docname="icon.svg"
   inkscape:export-filename="/home/gabriel/Documents/Software/geekdiscordbot/icon.png"
   inkscape:export-xdpi="192"
   inkscape:export-ydpi="192"
   xmlns:inkscape="http://www.inkscape.org/namespaces/inkscape"
   xmlns:sodipodi="http://sodipodi.sourceforge.net/DTD/sodipodi-0.dtd"
   xmlns="http://www.w3.org/2000/svg"
   xmlns:svg="http://www.w3.org/2000/svg">
  <sodipodi:namedview
     id="namedview7"
     pagecolor="#ffffff"
     bordercolor="#999999"
     borderopacity="1"
     inkscape:pageshadow="0"
     inkscape:pageopacity="0"
     inkscape:pagecheckerboard="0"
     inkscape:document-units="px"
     showgrid="false"
     units="px"
     width="32px"
     inkscape:zoom="0.56123738"
     inkscape:cx="262.81215"
     inkscape:cy="337.64679"
     inkscape:window-width="1920"
     inkscape:window-height="1147"
     inkscape:window-x="1680"
     inkscape:window-y="587"
     inkscape:window-maximized="1"
     inkscape:current-layer="layer1" />
  <defs
     id="defs2" />
  <g
     inkscape:label="Ebene 1"
     inkscape:groupmode="layer"
     id="layer1">
    <rect
       style="fill:#ffffff;fill-opacity:1;stroke:none;stroke-width:0;stroke-linecap:round;stroke-linejoin:round;stroke-miterlimit:4;stroke-dasharray:none;paint-order:stroke markers fill"
       id="rect948"
       width="270.93332"
       height="270.93332"
       x="-1.110223e-16"
       y="5.5511151e-17" />
    <path
       style="fill:none;stroke:#000000;stroke-width:4.23333297;stroke-linecap:round;stroke-linejoin:miter;stroke-miterlimit:4;stroke-dasharray:none;stroke-opacity:1"
       d="m 36.204067,161.37418 c 1.163012,2.29768 1.419018,2.29254 2.813748,4.46205 1.258452,1.95756 2.900067,3.6134 4.234778,5.51361 3.15214,4.48767 5.576653,9.32005 8.46959,13.95455 1.549804,2.4828 3.355267,4.77812 5.002162,7.19041 3.411127,4.99649 6.056077,10.89481 8.668537,16.34187 2.33651,4.87168 4.75833,9.71709 7.3896,14.43769 0.83148,1.49172 1.70826,2.94175 2.58634,4.40519 0.12746,0.21249 0.95205,1.42157 0.96634,1.33578 0.45411,-2.72541 8.48435,-7.96962 10.57275,-9.40723 1.66405,-1.14549 3.0585,-2.66696 4.7748,-3.7231 6.86917,-4.22702 13.445928,-8.83698 20.406608,-12.93139 5.2669,-3.09807 10.0503,-6.85054 15.17701,-10.14619 4.71371,-3.03016 9.66692,-5.63809 14.29605,-8.81039 7.28692,-4.99367 14.38384,-10.27247 21.65714,-15.29033 5.81327,-4.01056 11.65348,-7.97905 17.3655,-12.13557 6.99883,-5.09294 13.75321,-10.51464 20.77603,-15.57453 2.9165,-2.10132 5.99531,-3.99288 8.89592,-6.11046 4.36149,-3.18406 8.05383,-7.18392 12.39173,-10.37352 2.96561,-2.1806 6.01316,-4.32586 9.03803,-6.42307 0.85055,-0.5897 1.83909,-0.95777 2.64325,-1.61998 1.14611,-0.94383 2.12266,-2.01633 3.21158,-3.01258 0.49107,-0.44945 2.60071,-1.62048 2.75687,-2.24524 0.22953,-0.91888 -3.5734,-6.56784 -4.17798,-7.47463 -2.09564,-3.14334 -3.98959,-6.561052 -6.48003,-9.407242 -3.73787,-4.27174 -8.31766,-7.73871 -12.10756,-11.93667 -2.13862,-2.36886 -4.19161,-4.981956 -6.08214,-7.559894 -1.96226,-2.675663 -3.73309,-5.338693 -6.05386,-7.730432 -2.11512,-2.179831 -4.51787,-3.927587 -6.59371,-6.167263 -1.00053,-1.079519 -2.13536,-1.526189 -3.2685,-2.387338 -0.20403,-0.155242 -1.50506,-2.304198 -1.5916,-2.159976 -2.07687,3.459249 -5.46372,5.707189 -8.75382,8.099894 -7.17696,5.219415 -15.22288,9.226501 -22.28236,14.608209 -7.82451,5.96493 -15.5847,11.98188 -23.24874,18.16079 -2.72134,2.194 -5.61032,4.132652 -8.32748,6.337802 -5.38034,4.36653 -10.64863,8.76412 -16.34237,12.73246 -2.80598,1.95566 -5.73759,4.11776 -8.7822,5.71255 -2.49751,1.30821 -5.16394,2.33776 -7.531678,3.89363 -2.22545,1.46237 -4.20198,3.29389 -6.42322,4.77468 -6.08091,4.0538 -12.26914,8.11684 -18.58765,11.79455 -3.15192,1.83458 -6.54189,2.40922 -9.83383,3.86521 -5.01091,2.2163 -9.465407,5.52724 -14.26755,8.1283 -1.098435,0.59495 -0.678743,0.36057 -1.932664,1.27893 -1.531089,1.12137 -3.274331,2.23658 -5.05899,2.92734 -1.385441,0.53627 -6.267691,1.7827 -6.366431,2.67153"
       id="path1310"
       sodipodi:nodetypes="cssssssscssssssssssssssssssssscsssssssssssssc" />
    <path
       style="fill:none;stroke:#000000;stroke-width:4.23333297;stroke-linecap:round;stroke-linejoin:miter;stroke-miterlimit:4;stroke-dasharray:none;stroke-opacity:1"
       d="m 80.911002,149.35226 c -5.01919,4.05115 -10.04503,14.77519 -10.34542,21.23023 -0.11319,2.43187 0.5636,4.7904 0.99478,7.16201 1.95287,10.74116 8.49074,14.17507 18.8434,14.7503 1.24554,0.0692 2.47566,0.35829 3.72317,0.3979 3.01899,0.0959 6.848368,-0.60301 9.634918,-1.81892 1.71981,-0.75045 3.00489,-2.12081 4.29165,-3.4389 3.78854,-3.88081 7.20813,-7.83272 7.92957,-13.49981 0.7877,-6.18756 1.82568,-10.90894 -1.47794,-16.48399 -0.73696,-1.24367 -1.2306,-2.56989 -2.13157,-3.72309 -0.61515,-0.78735 -1.46763,-1.2763 -2.24532,-1.87576 -4.74392,-3.65669 -6.58852,-3.39963 -12.135968,-4.63256 -5.06206,-1.12504 -7.54785,-1.86717 -12.87487,-0.85263 -0.5043,0.096 -0.87807,0.50783 -1.36427,0.65368 -1.2547,0.37642 -2.11568,1.01397 -2.84213,2.13154 z"
       id="path1800" />
    <path
       style="fill:none;stroke:#000000;stroke-width:4.23333297;stroke-linecap:round;stroke-linejoin:miter;stroke-miterlimit:4;stroke-dasharray:none;stroke-opacity:1"
       d="m 172.65544,90.379398 c -4.95885,4.8155 -8.38438,11.991112 -8.38438,18.985012 0,10.20639 1.9874,14.50618 10.62963,19.80918 2.24505,1.3776 5.55487,2.57309 8.21381,2.67155 1.5522,0.0575 3.01547,-0.50474 4.54749,-0.65368 6.44314,-0.62641 7.26639,-1.51774 12.61909,-4.74626 3.14413,-1.8964 5.43777,-4.13747 7.92957,-6.79251 1.37255,-1.46244 2.66376,-2.54699 3.46738,-4.43365 1.76621,-4.14654 4.44283,-17.312462 2.52956,-21.343892 -0.75895,-1.59913 -5.21969,-6.74303 -6.7643,-7.50306 -0.99126,-0.48776 -2.11539,-0.6545 -3.1264,-1.10839 -3.21256,-1.4423 -6.61427,-3.19371 -10.2033,-3.55259 -4.168,-0.41678 -8.05183,0.91694 -11.8233,2.50101 -1.77384,0.74503 -3.75427,0.93085 -5.37169,2.04629 -1.58812,1.09523 -2.9464,2.72676 -4.26316,4.12099 z"
       id="path1802" />
    <path
       style="fill:none;stroke:#000000;stroke-width:4.23333297;stroke-linecap:round;stroke-linejoin:miter;stroke-miterlimit:4;stroke-dasharray:none;stroke-opacity:1"
       d="m 117.37568,139.34817 c 0.97526,0.99177 1.61403,2.18125 2.35898,3.32523 1.45345,2.23201 3.5084,4.15804 4.80329,6.47991 1.89212,3.39275 3.178,7.41385 5.57059,10.45881 0.23902,0.30419 1.22441,2.14404 1.73368,2.21678 1.05883,0.15128 3.40187,-2.10841 4.00741,-2.78522 1.96989,-2.20169 4.53348,-3.67569 6.7927,-5.54202 0.99487,-0.82184 1.7426,-1.84887 2.70006,-2.69996 2.48126,-2.20561 4.93031,-4.31567 7.58858,-6.30937 1.10778,-0.83084 2.33026,-1.4844 3.41052,-2.35891 1.03124,-0.83481 1.83421,-1.85769 2.81371,-2.72838 0.80803,-0.71825 2.19002,-1.49861 2.81372,-2.33049 0.16175,-0.21574 -0.9423,-2.73056 -1.53469,-3.49576 -1.54756,-1.99906 -3.46346,-4.39779 -5.14436,-6.25254 -1.06648,-1.17679 -2.50695,-2.19207 -3.43894,-3.46732 -0.87678,-1.19971 -1.29474,-2.56409 -2.01791,-3.83679 -0.23029,-0.40534 -2.00464,-3.97888 -2.70005,-3.97888 -0.37099,0 -2.69161,2.06744 -3.24003,2.38732 -4.0508,2.36273 -7.33369,5.12161 -10.71495,8.35569 -0.92657,0.88625 -1.52538,2.05324 -2.50106,2.9273 -0.6858,0.61437 -1.49665,0.92977 -2.24532,1.42106 -1.91021,1.25352 -3.67157,2.70634 -5.57059,3.95046 -0.89292,0.585 -1.80849,1.55268 -2.55789,2.30207 -0.71548,0.71548 -2.11473,1.39402 -2.92745,1.96101 z"
       id="path1804" />
    <path
       style="fill:none;stroke:#000000;stroke-width:4.23333297;stroke-linecap:round;stroke-linejoin:miter;stroke-miterlimit:4;stroke-dasharray:none;stroke-opacity:1"
       d="m 95.292212,128.17888 c 0.24331,-0.71347 -4.51098,-5.34664 -4.49055,-5.42836 0.0255,-0.10168 5.17793,-5.44862 5.62742,-5.93992 0.59583,-0.65124 0.98241,-1.33744 1.50635,-2.04629 0.47148,-0.63786 1.33455,-1.02013 1.90425,-1.56311 2.779988,-2.64958 5.704608,-5.21772 9.038028,-7.19044 1.12314,-0.66469 2.4262,-0.94412 3.55268,-1.61998 1.32033,-0.79217 2.5182,-1.78042 3.83692,-2.58627 1.56491,-0.95629 3.3005,-1.69518 4.83162,-2.699972 2.35747,-1.54707 4.24615,-3.80358 6.73588,-5.14414 1.43408,-0.77216 2.92151,-1.54816 4.32006,-2.38732 0.97798,-0.58681 1.67325,-1.44368 2.72846,-1.98946 0.20332,-0.10516 0.41646,-0.37815 0.62523,-0.28416 0.1967,0.0885 5.10973,8.3927 5.74175,6.70702"
       id="path1806"
       sodipodi:nodetypes="ccsssssssssscc" />
    <path
       style="fill:none;stroke:#000000;stroke-width:4.23333297;stroke-linecap:round;stroke-linejoin:miter;stroke-miterlimit:4;stroke-dasharray:none;stroke-opacity:1"
       d="m 98.219592,114.70748 c 0.55083,2.36572 5.560358,6.94908 6.047978,8.24964"
       id="path1808"
       sodipodi:nodetypes="cc" />
    <path
       style="fill:none;stroke:#000000;stroke-width:4.23333297;stroke-linecap:round;stroke-linejoin:miter;stroke-miterlimit:4;stroke-dasharray:none;stroke-opacity:1"
       d="m 108.54628,106.39269 c 0.98731,2.82614 4.54283,8.58223 6.35675,9.87789"
       id="path1810"
       sodipodi:nodetypes="cc" />
    <path
       style="fill:none;stroke:#000000;stroke-width:4.23333297;stroke-linecap:round;stroke-linejoin:miter;stroke-miterlimit:4;stroke-dasharray:none;stroke-opacity:1"
       d="m 118.24107,100.71847 c 1.09721,2.92976 3.5358,7.34635 5.04627,9.07222"
       id="path1812"
       sodipodi:nodetypes="cc" />
    <path
       style="fill:none;stroke:#000000;stroke-width:4.23333297;stroke-linecap:round;stroke-linejoin:miter;stroke-miterlimit:4;stroke-dasharray:none;stroke-opacity:1"
       d="m 126.64111,95.068808 c 1.80417,0.94328 2.43258,3.12867 3.83691,4.4052 0.45927,0.41743 2.6763,2.801352 2.3212,2.959202"
       id="path1814"
       sodipodi:nodetypes="csc" />
    <path
       style="fill:none;stroke:#000000;stroke-width:4.23333297;stroke-linecap:round;stroke-linejoin:miter;stroke-miterlimit:4;stroke-dasharray:none;stroke-opacity:1"
       d="m 50.159003,153.87115 c -0.360026,-0.44527 -0.773348,-0.85222 -1.079997,-1.33578 -0.826062,-1.30261 -1.022121,-3.16455 -1.506351,-4.60414 -0.938303,-2.78952 -2.395,-5.21111 -3.126366,-8.09988 -0.444999,-1.75756 -0.657363,-3.54679 -1.193696,-5.28624 -1.94937,-6.32218 -2.350782,-12.40979 -1.705302,-18.95658 0.474247,-4.80977 0.952807,-9.65317 2.302153,-14.32402 2.865904,-9.920542 9.283525,-19.694542 17.138128,-26.374362 5.51693,-4.691786 11.77812,-8.139652 18.13289,-11.510357 2.04374,-1.084055 4.02861,-2.284746 6.13902,-3.239951 1.66016,-0.751421 3.41873,-1.192036 5.11586,-1.847343 4.1511,-1.602845 8.26363,-3.166394 12.448628,-4.660992 2.1901,-0.782155 4.25457,-1.873041 6.45164,-2.643122 11.57836,-4.058244 25.6074,-6.785222 37.91419,-5.826234 3.32322,0.258936 6.53415,1.163071 9.777,1.875754 0.97513,0.214333 2.293,0.304679 3.24002,0.710529 0.7619,0.326492 1.39956,1.000058 2.16,1.364197 1.29446,0.619857 2.76394,0.69138 4.06431,1.307341 0.54972,0.260402 0.92213,0.765616 1.47787,1.023147 1.19553,0.554011 2.51047,0.791406 3.60958,1.56312 1.95238,1.370812 3.60352,3.031755 4.91688,5.002043 0.34336,0.515106 0.48813,1.177483 0.90945,1.648393 1.28943,1.441151 6.66565,4.644068 6.22434,5.968334"
       id="path1816"
       sodipodi:nodetypes="csssssssssssssssssssscc" />
    <path
       style="fill:none;stroke:#000000;stroke-width:4.23333297;stroke-linecap:round;stroke-linejoin:miter;stroke-miterlimit:4;stroke-dasharray:none;stroke-opacity:1"
       d="m 57.434896,149.92069 c -2.541485,-3.01411 -3.463037,-6.90572 -5.030618,-10.45882 -0.703616,-1.59483 -1.738076,-2.96467 -2.501059,-4.51889 -1.050446,-2.1398 -1.69484,-4.8919 -2.188448,-7.21883 -1.076263,-5.07368 -1.669017,-10.78933 -1.222151,-15.97243 0.175048,-2.03009 0.637097,-3.96313 0.937918,-5.96833 0.178738,-1.19156 0.203264,-2.44606 0.540012,-3.60941 2.431892,-8.400952 7.629836,-15.967722 13.414922,-22.395472 1.22287,-1.35873 2.83863,-2.121175 4.32006,-3.154707 1.84426,-1.286668 3.72398,-2.526692 5.62742,-3.723096 2.77399,-1.743578 6.02216,-2.758667 8.78225,-4.490459 2.31103,-1.450034 4.51237,-3.094574 6.96328,-4.319948 2.36525,-1.18254 4.78778,-2.243398 7.13377,-3.467313 3.16569,-1.65155 6.572278,-3.659344 10.032738,-4.632575 3.83738,-1.079248 7.79792,-1.331109 11.65283,-2.330489 4.06004,-1.052561 8.171,-1.431828 12.24963,-2.330488 3.2155,-0.708478 6.42673,-1.167536 9.7485,-1.023146 1.68438,0.0732 3.41686,0.573122 5.08745,0.767362 2.58579,0.300664 5.09045,0.604079 7.64541,1.193659 2.31715,0.534694 4.49549,1.682685 6.79271,2.245243 0.73286,0.179443 1.39674,0.06555 2.13157,0.17049 0.45694,0.06528 0.84551,0.364909 1.30744,0.454712 2.59945,0.505447 5.07318,0.440008 7.56009,1.563142 1.62248,0.732744 2.53794,3.5198 3.38212,5.030438 1.19064,2.130665 2.90615,3.704898 4.71796,5.257828 0.44896,0.384823 0.83839,0.859846 1.22211,1.307358 0.10109,0.117964 0.37452,0.495897 0.28423,0.369467 -0.0672,-0.09409 -0.19893,-0.399854 -0.19893,-0.284222 0,0.152746 -0.0543,0.559784 0.0569,0.454712"
       id="path1818"
       sodipodi:nodetypes="csssssssssssssssssssssssscssc" />
    <path
       style="fill:none;stroke:#000000;stroke-width:4.23333297;stroke-linecap:round;stroke-linejoin:miter;stroke-miterlimit:4;stroke-dasharray:none;stroke-opacity:1"
       d="m 83.133102,174.68062 c -1.1924,1.27279 -2.41474,2.51816 -3.57721,3.81834 -6.80414,7.61012 -12.75125,15.86506 -19.21279,23.75398 -1.759791,2.14854 -3.57945,4.24748 -5.345736,6.39068 -0.431217,0.52324 -0.822482,1.07827 -1.246043,1.60772 -0.0592,0.074 -0.275432,0.25943 -0.20093,0.20093 1.354256,-1.06412 2.39246,-2.46917 3.496901,-3.77808"
       id="path3301" />
    <path
       style="fill:none;stroke:#000000;stroke-width:4.23333297;stroke-linecap:round;stroke-linejoin:miter;stroke-miterlimit:4;stroke-dasharray:none;stroke-opacity:1"
       d="m 93.663952,178.78032 c -0.0537,1.6613 -0.0991,3.32287 -0.16073,4.98389 -0.42991,11.5863 -1.12563,23.17372 -1.28617,34.76683 -0.0608,4.39061 0.39497,9.29386 -0.20104,13.66557 -0.0174,0.12589 -0.092,-0.23788 -0.12057,-0.36176 -0.14189,-0.61488 -0.1439,-0.95171 -0.20093,-1.60771"
       id="path3303" />
    <path
       style="fill:none;stroke:#000000;stroke-width:4.23333297;stroke-linecap:round;stroke-linejoin:miter;stroke-miterlimit:4;stroke-dasharray:none;stroke-opacity:1"
       d="m 83.856682,161.05524 c -1.59438,1.00482 -3.18876,2.00963 -4.78314,3.01445 -2.10347,1.59433 -4.10878,3.32719 -6.31042,4.78297 -5.73597,3.79273 -12.28541,6.62348 -18.288285,9.96784 -1.791003,0.99782 -9.882361,6.47042 -11.495467,6.6318 -2.897012,0.28987 -6.153562,4.19974 -8.239792,5.82797 -0.59252,0.46242 -3.604252,2.24911 -1.165615,1.48716"
       id="path3305" />
    <path
       style="fill:none;stroke:#000000;stroke-width:4.23333297;stroke-linecap:round;stroke-linejoin:miter;stroke-miterlimit:4;stroke-dasharray:none;stroke-opacity:1"
       d="m 180.88497,98.113198 c 0.69666,-2.30438 1.2716,-4.64914 2.09001,-6.91315 4.55081,-12.5894 10.95645,-24.084751 16.72072,-36.093191 1.21866,-2.538837 1.71337,-4.19456 2.41171,-6.551484 0.0684,-0.230015 0.65597,-2.893833 1.04492,-2.893833 0.87698,0 -0.53773,1.670189 -0.84399,2.491917"
       id="path3307" />
    <path
       style="fill:none;stroke:#000000;stroke-width:4.23333297;stroke-linecap:round;stroke-linejoin:miter;stroke-miterlimit:4;stroke-dasharray:none;stroke-opacity:1"
       d="m 198.16829,99.640548 c 6.6057,-11.58852 12.35532,-24.029974 22.78999,-32.717006 2.70516,-2.252096 5.88441,-4.851928 9.04374,-6.430871 0.26588,-0.132778 2.93647,-4.182443 1.36652,-2.612535"
       id="path3309" />
    <path
       style="fill:none;stroke:#000000;stroke-width:4.23333297;stroke-linecap:round;stroke-linejoin:miter;stroke-miterlimit:4;stroke-dasharray:none;stroke-opacity:1"
       d="m 201.1427,112.7434 c 1.5006,0.48234 2.97077,1.07206 4.50176,1.44698 5.71179,1.39878 11.58518,2.08439 17.36377,3.13501 5.21281,0.94774 10.4922,2.40847 15.83637,2.00968 3.3315,-0.24863 2.44546,-0.52411 6.23016,-0.16078 0.86639,0.0832 6.46473,2.5966 4.54191,3.2958"
       id="path3311" />
    <path
       style="fill:none;stroke:#000000;stroke-width:4.23333297;stroke-linecap:butt;stroke-linejoin:miter;stroke-miterlimit:4;stroke-dasharray:none;stroke-opacity:1"
       d="m 144.54952,131.11157 c -2.84048,2.4474 -1.65739,7.99834 2.25084,7.99834 1.05312,0 1.76733,-0.61939 2.33135,-1.4871 0.75523,-1.16189 1.54732,-3.29164 1.00477,-4.7026 -0.33979,-0.88362 -2.53059,-3.48413 -3.81835,-2.81346 -4.37889,2.28053 -8.13363,5.10086 -12.17879,7.79741 -0.8385,0.55896 -1.37244,1.531 -2.21067,2.09001 -1.30219,0.86842 -1.25184,3.1436 -1.40684,4.46142 -0.0561,0.4768 -0.17538,1.41417 0.12056,1.80865 3.12664,4.16765 8.86173,-0.45162 7.07419,-4.74272 -0.79009,-1.89667 -3.05789,-3.30335 -5.02426,-2.21062 -0.5042,0.28016 -0.71518,1.02077 -0.84401,1.08519 -0.24234,0.12116 -0.087,-0.53497 -0.12068,-0.80384"
       id="path3462" />
  </g>
</svg>
